FIFO/FIFO.sim/sim_1/behav/xsim/simulate.log
Time resolution is 1 ps
----------------------------------------------
------------------   -----------------------
----------- SIMULATION RESULT ----------------
--------------       -------------------
----------------     ---------------------
----------------------------------------------
TIME =                    0, wr = 0, rd = 0, d_in = 00
TIME =                   10, d_out =   x, mem =   x
TIME =                   30, d_out =   x, mem =   x
TIME =                   50, d_out =   x, mem =   x
TIME =                   50, wr = 1, rd = 0, d_in = 01
TIME =                   70, d_out =   1, mem =   1
TIME =                   70, wr = 0, rd = 0, d_in = 01
TIME =                   90, d_out =   1, mem =   1
TIME =                  110, d_out =   1, mem =   1
TIME =                  120, wr = 1, rd = 0, d_in = 02
TIME =                  130, d_out =   1, mem =   1
TIME =                  140, wr = 0, rd = 0, d_in = 02
TIME =                  150, d_out =   1, mem =   1
TIME =                  170, d_out =   1, mem =   1
TIME =                  190, d_out =   1, mem =   1
TIME =                  190, wr = 1, rd = 0, d_in = 03
TIME =                  210, d_out =   1, mem =   1
TIME =                  210, wr = 0, rd = 0, d_in = 03
TIME =                  230, d_out =   1, mem =   1
TIME =                  250, d_out =   1, mem =   1
TIME =                  260, wr = 1, rd = 0, d_in = 04
TIME =                  270, d_out =   1, mem =   1
TIME =                  280, wr = 0, rd = 0, d_in = 04
TIME =                  290, d_out =   1, mem =   1
TIME =                  310, d_out =   1, mem =   1
TIME =                  330, d_out =   1, mem =   1
TIME =                  330, wr = 1, rd = 0, d_in = 05
TIME =                  350, d_out =   1, mem =   1
TIME =                  350, wr = 0, rd = 0, d_in = 05
TIME =                  370, d_out =   1, mem =   1
TIME =                  390, d_out =   1, mem =   1
TIME =                  400, wr = 1, rd = 0, d_in = 06
TIME =                  410, d_out =   1, mem =   1
TIME =                  420, wr = 0, rd = 0, d_in = 06
TIME =                  430, d_out =   1, mem =   1
TIME =                  450, d_out =   1, mem =   1
TIME =                  470, d_out =   1, mem =   1
TIME =                  470, wr = 1, rd = 0, d_in = 07
TIME =                  490, d_out =   1, mem =   1
TIME =                  490, wr = 0, rd = 0, d_in = 07
TIME =                  510, d_out =   1, mem =   1
TIME =                  530, d_out =   1, mem =   1
TIME =                  540, wr = 1, rd = 0, d_in = 08
TIME =                  550, d_out =   1, mem =   1
TIME =                  560, wr = 0, rd = 0, d_in = 08
TIME =                  570, d_out =   1, mem =   1
TIME =                  590, d_out =   1, mem =   1
TIME =                  610, d_out =   1, mem =   1
TIME =                  610, wr = 1, rd = 0, d_in = 09
TIME =                  630, d_out =   1, mem =   1
TIME =                  630, wr = 0, rd = 0, d_in = 09
TIME =                  650, d_out =   1, mem =   1
TIME =                  670, d_out =   1, mem =   1
TIME =                  680, wr = 1, rd = 0, d_in = 0a
TIME =                  690, d_out =   1, mem =   1
TIME =                  700, wr = 0, rd = 0, d_in = 0a
TIME =                  710, d_out =   1, mem =   1
TIME =                  730, d_out =   1, mem =   1
TIME =                  750, d_out =   1, mem =   1
TIME =                  750, wr = 1, rd = 0, d_in = 0b
TIME =                  770, d_out =   1, mem =   1
TIME =                  770, wr = 0, rd = 0, d_in = 0b
TIME =                  790, d_out =   1, mem =   1
TIME =                  810, d_out =   1, mem =   1
TIME =                  820, wr = 1, rd = 0, d_in = 0c
TIME =                  830, d_out =   1, mem =   1
TIME =                  840, wr = 0, rd = 0, d_in = 0c
TIME =                  850, d_out =   1, mem =   1
TIME =                  870, d_out =   1, mem =   1
TIME =                  890, d_out =   1, mem =   1
TIME =                  890, wr = 1, rd = 0, d_in = 0d
TIME =                  910, d_out =   1, mem =   1
TIME =                  910, wr = 0, rd = 0, d_in = 0d
TIME =                  930, d_out =   1, mem =   1
TIME =                  950, d_out =   1, mem =   1
TIME =                  960, wr = 1, rd = 0, d_in = 0e
TIME =                  970, d_out =   1, mem =   1
TIME =                  980, wr = 0, rd = 0, d_in = 0e
TIME =                  990, d_out =   1, mem =   1
TIME =                 1010, d_out =   1, mem =   1
TIME =                 1030, d_out =   1, mem =   1
TIME =                 1030, wr = 1, rd = 0, d_in = 0f
TIME =                 1050, d_out =   1, mem =   1
TIME =                 1050, wr = 0, rd = 0, d_in = 0f
TIME =                 1070, d_out =   1, mem =   1
TIME =                 1090, d_out =   1, mem =   1
TIME =                 1100, wr = 1, rd = 0, d_in = 10
TIME =                 1110, d_out =   1, mem =   1
TIME =                 1120, wr = 0, rd = 0, d_in = 10
TIME =                 1130, d_out =   1, mem =   1
TIME =                 1150, d_out =   1, mem =   1
TIME =                 1170, d_out =   1, mem =   1
TIME =                 1170, wr = 1, rd = 0, d_in = 11
TIME =                 1190, d_out =   1, mem =   1
TIME =                 1190, wr = 0, rd = 0, d_in = 11
TIME =                 1210, d_out =   1, mem =   1
TIME =                 1220, wr = 0, rd = 1, d_in = 11
TIME =                 1230, d_out =   1, mem =   1
=== PASS ===== PASS ==== PASS ==== PASS ===
TIME =                 1240, wr = 0, rd = 0, d_in = 11
TIME =                 1250, d_out =   2, mem =   2
TIME =                 1260, wr = 0, rd = 1, d_in = 11
TIME =                 1270, d_out =   2, mem =   2
=== PASS ===== PASS ==== PASS ==== PASS ===
TIME =                 1280, wr = 0, rd = 0, d_in = 11
TIME =                 1290, d_out =   3, mem =   3
TIME =                 1300, wr = 0, rd = 1, d_in = 11
TIME =                 1310, d_out =   3, mem =   3
=== PASS ===== PASS ==== PASS ==== PASS ===
TIME =                 1320, wr = 0, rd = 0, d_in = 11
TIME =                 1330, d_out =   4, mem =   4
TIME =                 1340, wr = 0, rd = 1, d_in = 11
TIME =                 1350, d_out =   4, mem =   4
=== PASS ===== PASS ==== PASS ==== PASS ===
TIME =                 1360, wr = 0, rd = 0, d_in = 11
TIME =                 1370, d_out =   5, mem =   5
TIME =                 1380, wr = 0, rd = 1, d_in = 11
TIME =                 1390, d_out =   5, mem =   5
=== PASS ===== PASS ==== PASS ==== PASS ===
TIME =                 1400, wr = 0, rd = 0, d_in = 11
TIME =                 1410, d_out =   6, mem =   6
TIME =                 1420, wr = 0, rd = 1, d_in = 11
TIME =                 1430, d_out =   6, mem =   6
=== PASS ===== PASS ==== PASS ==== PASS ===
TIME =                 1440, wr = 0, rd = 0, d_in = 11
TIME =                 1450, d_out =   7, mem =   7
TIME =                 1460, wr = 0, rd = 1, d_in = 11
TIME =                 1470, d_out =   7, mem =   7
=== PASS ===== PASS ==== PASS ==== PASS ===
TIME =                 1480, wr = 0, rd = 0, d_in = 11
TIME =                 1490, d_out =   8, mem =   8
TIME =                 1500, wr = 0, rd = 1, d_in = 11
TIME =                 1510, d_out =   8, mem =   8
=== PASS ===== PASS ==== PASS ==== PASS ===
TIME =                 1520, wr = 0, rd = 0, d_in = 11
TIME =                 1530, d_out =   9, mem =   9
TIME =                 1540, wr = 0, rd = 1, d_in = 11
TIME =                 1550, d_out =   9, mem =   9
=== PASS ===== PASS ==== PASS ==== PASS ===
TIME =                 1560, wr = 0, rd = 0, d_in = 11
TIME =                 1570, d_out =  10, mem =  10
TIME =                 1580, wr = 0, rd = 1, d_in = 11
TIME =                 1590, d_out =  10, mem =  10
=== PASS ===== PASS ==== PASS ==== PASS ===
TIME =                 1600, wr = 0, rd = 0, d_in = 11
TIME =                 1610, d_out =  11, mem =  11
TIME =                 1620, wr = 0, rd = 1, d_in = 11
TIME =                 1630, d_out =  11, mem =  11
=== PASS ===== PASS ==== PASS ==== PASS ===
TIME =                 1640, wr = 0, rd = 0, d_in = 11
TIME =                 1650, d_out =  12, mem =  12
TIME =                 1660, wr = 0, rd = 1, d_in = 11
TIME =                 1670, d_out =  12, mem =  12
=== PASS ===== PASS ==== PASS ==== PASS ===
TIME =                 1680, wr = 0, rd = 0, d_in = 11
TIME =                 1690, d_out =  13, mem =  13
TIME =                 1700, wr = 0, rd = 1, d_in = 11
TIME =                 1710, d_out =  13, mem =  13
=== PASS ===== PASS ==== PASS ==== PASS ===
TIME =                 1720, wr = 0, rd = 0, d_in = 11
TIME =                 1730, d_out =  14, mem =  14
TIME =                 1740, wr = 0, rd = 1, d_in = 11
TIME =                 1750, d_out =  14, mem =  14
=== PASS ===== PASS ==== PASS ==== PASS ===
TIME =                 1760, wr = 0, rd = 0, d_in = 11
TIME =                 1770, d_out =  15, mem =  15
TIME =                 1780, wr = 0, rd = 1, d_in = 11
TIME =                 1790, d_out =  15, mem =  15
=== PASS ===== PASS ==== PASS ==== PASS ===
TIME =                 1800, wr = 0, rd = 0, d_in = 11
TIME =                 1810, d_out =  16, mem =  16
TIME =                 1820, wr = 0, rd = 1, d_in = 11
TIME =                 1830, d_out =  16, mem =  16
=== PASS ===== PASS ==== PASS ==== PASS ===
TIME =                 1840, wr = 0, rd = 0, d_in = 11
TIME =                 1850, d_out =   1, mem =  17
TIME =                 1860, wr = 0, rd = 1, d_in = 11
TIME =                 1870, d_out =   1, mem =  17
TIME =                 1880, wr = 0, rd = 0, d_in = 11
TIME =                 1890, d_out =   1, mem =  17
TIME =                 1910, d_out =   1, mem =  17
TIME =                 1930, d_out =   1, mem =  17
TIME =                 1950, d_out =   1, mem =  17
TIME =                 1970, d_out =   1, mem =  17
TIME =                 1990, d_out =   1, mem =  17
TIME =                 2010, d_out =   1, mem =  17
TIME =                 2030, d_out =   1, mem =  17
TIME =                 2050, d_out =   1, mem =  17
TIME =                 2070, d_out =   1, mem =  17
TIME =                 2090, d_out =   1, mem =  17
TIME =                 2110, d_out =   1, mem =  17
TIME =                 2130, d_out =   1, mem =  17
TIME =                 2150, d_out =   1, mem =  17
TIME =                 2170, d_out =   1, mem =  17
TIME =                 2190, d_out =   1, mem =  17
TIME =                 2210, d_out =   1, mem =  17
TIME =                 2230, d_out =   1, mem =  17
TIME =                 2250, d_out =   1, mem =  17
TIME =                 2270, d_out =   1, mem =  17
TIME =                 2290, d_out =   1, mem =  17
TIME =                 2310, d_out =   1, mem =  17
TIME =                 2330, d_out =   1, mem =  17
TIME =                 2350, d_out =   1, mem =  17
TIME =                 2370, d_out =   1, mem =  17
TIME =                 2390, d_out =   1, mem =  17
TIME =                 2410, d_out =   1, mem =  17
TIME =                 2430, d_out =   1, mem =  17
TIME =                 2450, d_out =   1, mem =  17
TIME =                 2470, d_out =   1, mem =  17
TIME =                 2490, d_out =   1, mem =  17
TIME =                 2510, d_out =   1, mem =  17
TIME =                 2530, d_out =   1, mem =  17
TIME =                 2550, d_out =   1, mem =  17
TIME =                 2570, d_out =   1, mem =  17
TIME =                 2590, d_out =   1, mem =  17
TIME =                 2610, d_out =   1, mem =  17
TIME =                 2630, d_out =   1, mem =  17
TIME =                 2650, d_out =   1, mem =  17
TIME =                 2670, d_out =   1, mem =  17
TIME =                 2690, d_out =   1, mem =  17
TIME =                 2710, d_out =   1, mem =  17
TIME =                 2730, d_out =   1, mem =  17
TIME =                 2750, d_out =   1, mem =  17
TIME =                 2770, d_out =   1, mem =  17
TIME =                 2790, d_out =   1, mem =  17
TIME =                 2810, d_out =   1, mem =  17
TIME =                 2830, d_out =   1, mem =  17
TIME =                 2850, d_out =   1, mem =  17
TIME =                 2870, d_out =   1, mem =  17
TIME =                 2890, d_out =   1, mem =  17
TIME =                 2910, d_out =   1, mem =  17
TIME =                 2930, d_out =   1, mem =  17
TIME =                 2950, d_out =   1, mem =  17
TIME =                 2970, d_out =   1, mem =  17
TIME =                 2990, d_out =   1, mem =  17
TIME =                 3010, d_out =   1, mem =  17
TIME =                 3030, d_out =   1, mem =  17
TIME =                 3050, d_out =   1, mem =  17
TIME =                 3070, d_out =   1, mem =  17
TIME =                 3090, d_out =   1, mem =  17
TIME =                 3110, d_out =   1, mem =  17
TIME =                 3130, d_out =   1, mem =  17
TIME =                 3150, d_out =   1, mem =  17
TIME =                 3170, d_out =   1, mem =  17
TIME =                 3190, d_out =   1, mem =  17
TIME =                 3210, d_out =   1, mem =  17
TIME =                 3230, d_out =   1, mem =  17
TIME =                 3250, d_out =   1, mem =  17
TIME =                 3270, d_out =   1, mem =  17
TIME =                 3290, d_out =   1, mem =  17
TIME =                 3310, d_out =   1, mem =  17
TIME =                 3330, d_out =   1, mem =  17
TIME =                 3350, d_out =   1, mem =  17
TIME =                 3370, d_out =   1, mem =  17
TIME =                 3390, d_out =   1, mem =  17
TIME =                 3410, d_out =   1, mem =  17
TIME =                 3430, d_out =   1, mem =  17
TIME =                 3450, d_out =   1, mem =  17
TIME =                 3470, d_out =   1, mem =  17
TIME =                 3490, d_out =   1, mem =  17
TIME =                 3510, d_out =   1, mem =  17
TIME =                 3530, d_out =   1, mem =  17
TIME =                 3550, d_out =   1, mem =  17
TIME =                 3570, d_out =   1, mem =  17
TIME =                 3590, d_out =   1, mem =  17
TIME =                 3610, d_out =   1, mem =  17
TIME =                 3630, d_out =   1, mem =  17
TIME =                 3650, d_out =   1, mem =  17
TIME =                 3670, d_out =   1, mem =  17
TIME =                 3690, d_out =   1, mem =  17
TIME =                 3710, d_out =   1, mem =  17
TIME =                 3730, d_out =   1, mem =  17
TIME =                 3750, d_out =   1, mem =  17
TIME =                 3770, d_out =   1, mem =  17
TIME =                 3790, d_out =   1, mem =  17
TIME =                 3810, d_out =   1, mem =  17
TIME =                 3830, d_out =   1, mem =  17
TIME =                 3850, d_out =   1, mem =  17
TIME =                 3870, d_out =   1, mem =  17
TIME =                 3890, d_out =   1, mem =  17
TIME =                 3910, d_out =   1, mem =  17
TIME =                 3930, d_out =   1, mem =  17
TIME =                 3950, d_out =   1, mem =  17
TIME =                 3970, d_out =   1, mem =  17
TIME =                 3990, d_out =   1, mem =  17
TIME =                 4010, d_out =   1, mem =  17
TIME =                 4030, d_out =   1, mem =  17
TIME =                 4050, d_out =   1, mem =  17
TIME =                 4070, d_out =   1, mem =  17
TIME =                 4090, d_out =   1, mem =  17
TIME =                 4110, d_out =   1, mem =  17
TIME =                 4130, d_out =   1, mem =  17
TIME =                 4150, d_out =   1, mem =  17
TIME =                 4170, d_out =   1, mem =  17
TIME =                 4190, d_out =   1, mem =  17
TIME =                 4210, d_out =   1, mem =  17
TIME =                 4230, d_out =   1, mem =  17
TIME =                 4250, d_out =   1, mem =  17
TIME =                 4270, d_out =   1, mem =  17
TIME =                 4290, d_out =   1, mem =  17
TIME =                 4310, d_out =   1, mem =  17
TIME =                 4330, d_out =   1, mem =  17
TIME =                 4350, d_out =   1, mem =  17
TIME =                 4370, d_out =   1, mem =  17
TIME =                 4390, d_out =   1, mem =  17
TIME =                 4410, d_out =   1, mem =  17
TIME =                 4430, d_out =   1, mem =  17
TIME =                 4450, d_out =   1, mem =  17
TIME =                 4470, d_out =   1, mem =  17
TIME =                 4490, d_out =   1, mem =  17
TIME =                 4510, d_out =   1, mem =  17
TIME =                 4530, d_out =   1, mem =  17
TIME =                 4550, d_out =   1, mem =  17
TIME =                 4570, d_out =   1, mem =  17
TIME =                 4590, d_out =   1, mem =  17
TIME =                 4610, d_out =   1, mem =  17
TIME =                 4630, d_out =   1, mem =  17
TIME =                 4650, d_out =   1, mem =  17
TIME =                 4670, d_out =   1, mem =  17
TIME =                 4690, d_out =   1, mem =  17
TIME =                 4710, d_out =   1, mem =  17
TIME =                 4730, d_out =   1, mem =  17
TIME =                 4750, d_out =   1, mem =  17
TIME =                 4770, d_out =   1, mem =  17
TIME =                 4790, d_out =   1, mem =  17
TIME =                 4810, d_out =   1, mem =  17
TIME =                 4830, d_out =   1, mem =  17
TIME =                 4850, d_out =   1, mem =  17
TIME =                 4870, d_out =   1, mem =  17
TIME =                 4890, d_out =   1, mem =  17
TIME =                 4910, d_out =   1, mem =  17
TIME =                 4930, d_out =   1, mem =  17
TIME =                 4950, d_out =   1, mem =  17
TIME =                 4970, d_out =   1, mem =  17
TIME =                 4990, d_out =   1, mem =  17
TIME =                 5010, d_out =   1, mem =  17
TIME =                 5030, d_out =   1, mem =  17
TIME =                 5050, d_out =   1, mem =  17
TIME =                 5070, d_out =   1, mem =  17
TIME =                 5090, d_out =   1, mem =  17
TIME =                 5110, d_out =   1, mem =  17
TIME =                 5130, d_out =   1, mem =  17
TIME =                 5150, d_out =   1, mem =  17
TIME =                 5170, d_out =   1, mem =  17
TIME =                 5190, d_out =   1, mem =  17
TIME =                 5210, d_out =   1, mem =  17
TIME =                 5230, d_out =   1, mem =  17
TIME =                 5250, d_out =   1, mem =  17
TIME =                 5270, d_out =   1, mem =  17
TIME =                 5290, d_out =   1, mem =  17
TIME =                 5310, d_out =   1, mem =  17
TIME =                 5330, d_out =   1, mem =  17
TIME =                 5350, d_out =   1, mem =  17
TIME =                 5370, d_out =   1, mem =  17
TIME =                 5390, d_out =   1, mem =  17
TIME =                 5410, d_out =   1, mem =  17
TIME =                 5430, d_out =   1, mem =  17
TIME =                 5450, d_out =   1, mem =  17
TIME =                 5470, d_out =   1, mem =  17
TIME =                 5490, d_out =   1, mem =  17
TIME =                 5510, d_out =   1, mem =  17
TIME =                 5530, d_out =   1, mem =  17
TIME =                 5550, d_out =   1, mem =  17
TIME =                 5570, d_out =   1, mem =  17
TIME =                 5590, d_out =   1, mem =  17
TIME =                 5610, d_out =   1, mem =  17
TIME =                 5630, d_out =   1, mem =  17
TIME =                 5650, d_out =   1, mem =  17
TIME =                 5670, d_out =   1, mem =  17
TIME =                 5690, d_out =   1, mem =  17
TIME =                 5710, d_out =   1, mem =  17
TIME =                 5730, d_out =   1, mem =  17
TIME =                 5750, d_out =   1, mem =  17
TIME =                 5770, d_out =   1, mem =  17
TIME =                 5790, d_out =   1, mem =  17
TIME =                 5810, d_out =   1, mem =  17
TIME =                 5830, d_out =   1, mem =  17
TIME =                 5850, d_out =   1, mem =  17
TIME =                 5870, d_out =   1, mem =  17
TIME =                 5890, d_out =   1, mem =  17
TIME =                 5910, d_out =   1, mem =  17
TIME =                 5930, d_out =   1, mem =  17
TIME =                 5950, d_out =   1, mem =  17
TIME =                 5970, d_out =   1, mem =  17
TIME =                 5990, d_out =   1, mem =  17
TIME =                 6010, d_out =   1, mem =  17
TIME =                 6030, d_out =   1, mem =  17
TIME =                 6050, d_out =   1, mem =  17
TIME =                 6070, d_out =   1, mem =  17
TIME =                 6090, d_out =   1, mem =  17
TIME =                 6110, d_out =   1, mem =  17
TIME =                 6130, d_out =   1, mem =  17
TIME =                 6150, d_out =   1, mem =  17
TIME =                 6170, d_out =   1, mem =  17
TIME =                 6190, d_out =   1, mem =  17
TIME =                 6210, d_out =   1, mem =  17
TIME =                 6230, d_out =   1, mem =  17
TIME =                 6250, d_out =   1, mem =  17
TIME =                 6270, d_out =   1, mem =  17
TIME =                 6290, d_out =   1, mem =  17
TIME =                 6310, d_out =   1, mem =  17
TIME =                 6330, d_out =   1, mem =  17
TIME =                 6350, d_out =   1, mem =  17
TIME =                 6370, d_out =   1, mem =  17
TIME =                 6390, d_out =   1, mem =  17
TIME =                 6410, d_out =   1, mem =  17
TIME =                 6430, d_out =   1, mem =  17
TIME =                 6450, d_out =   1, mem =  17
TIME =                 6470, d_out =   1, mem =  17
TIME =                 6490, d_out =   1, mem =  17
TIME =                 6510, d_out =   1, mem =  17
TIME =                 6530, d_out =   1, mem =  17
TIME =                 6550, d_out =   1, mem =  17
TIME =                 6570, d_out =   1, mem =  17
TIME =                 6590, d_out =   1, mem =  17
TIME =                 6610, d_out =   1, mem =  17
TIME =                 6630, d_out =   1, mem =  17
TIME =                 6650, d_out =   1, mem =  17
TIME =                 6670, d_out =   1, mem =  17
TIME =                 6690, d_out =   1, mem =  17
TIME =                 6710, d_out =   1, mem =  17
TIME =                 6730, d_out =   1, mem =  17
TIME =                 6750, d_out =   1, mem =  17
TIME =                 6770, d_out =   1, mem =  17
TIME =                 6790, d_out =   1, mem =  17
TIME =                 6810, d_out =   1, mem =  17
TIME =                 6830, d_out =   1, mem =  17
TIME =                 6850, d_out =   1, mem =  17
TIME =                 6870, d_out =   1, mem =  17
TIME =                 6890, d_out =   1, mem =  17
TIME =                 6910, d_out =   1, mem =  17
TIME =                 6930, d_out =   1, mem =  17
TIME =                 6950, d_out =   1, mem =  17
TIME =                 6970, d_out =   1, mem =  17
TIME =                 6990, d_out =   1, mem =  17
TIME =                 7010, d_out =   1, mem =  17
TIME =                 7030, d_out =   1, mem =  17
TIME =                 7050, d_out =   1, mem =  17
TIME =                 7070, d_out =   1, mem =  17
TIME =                 7090, d_out =   1, mem =  17
TIME =                 7110, d_out =   1, mem =  17
TIME =                 7130, d_out =   1, mem =  17
TIME =                 7150, d_out =   1, mem =  17
TIME =                 7170, d_out =   1, mem =  17
TIME =                 7190, d_out =   1, mem =  17
TIME =                 7210, d_out =   1, mem =  17
TIME =                 7230, d_out =   1, mem =  17
TIME =                 7250, d_out =   1, mem =  17
TIME =                 7270, d_out =   1, mem =  17
TIME =                 7290, d_out =   1, mem =  17
TIME =                 7310, d_out =   1, mem =  17
TIME =                 7330, d_out =   1, mem =  17
TIME =                 7350, d_out =   1, mem =  17
TIME =                 7370, d_out =   1, mem =  17
TIME =                 7390, d_out =   1, mem =  17
TIME =                 7410, d_out =   1, mem =  17
TIME =                 7430, d_out =   1, mem =  17
TIME =                 7450, d_out =   1, mem =  17
TIME =                 7470, d_out =   1, mem =  17
TIME =                 7490, d_out =   1, mem =  17
TIME =                 7510, d_out =   1, mem =  17
TIME =                 7530, d_out =   1, mem =  17
TIME =                 7550, d_out =   1, mem =  17
TIME =                 7570, d_out =   1, mem =  17
TIME =                 7590, d_out =   1, mem =  17
TIME =                 7610, d_out =   1, mem =  17
TIME =                 7630, d_out =   1, mem =  17
TIME =                 7650, d_out =   1, mem =  17
TIME =                 7670, d_out =   1, mem =  17
TIME =                 7690, d_out =   1, mem =  17
TIME =                 7710, d_out =   1, mem =  17
TIME =                 7730, d_out =   1, mem =  17
TIME =                 7750, d_out =   1, mem =  17
TIME =                 7770, d_out =   1, mem =  17
TIME =                 7790, d_out =   1, mem =  17
TIME =                 7810, d_out =   1, mem =  17
TIME =                 7830, d_out =   1, mem =  17
TIME =                 7850, d_out =   1, mem =  17
TIME =                 7870, d_out =   1, mem =  17
TIME =                 7890, d_out =   1, mem =  17
TIME =                 7910, d_out =   1, mem =  17
TIME =                 7930, d_out =   1, mem =  17
TIME =                 7950, d_out =   1, mem =  17
TIME =                 7970, d_out =   1, mem =  17
TIME =                 7990, d_out =   1, mem =  17
TIME =                 8010, d_out =   1, mem =  17
TIME =                 8030, d_out =   1, mem =  17
TIME =                 8050, d_out =   1, mem =  17
TIME =                 8070, d_out =   1, mem =  17
TIME =                 8090, d_out =   1, mem =  17
TIME =                 8110, d_out =   1, mem =  17
TIME =                 8130, d_out =   1, mem =  17
TIME =                 8150, d_out =   1, mem =  17
TIME =                 8170, d_out =   1, mem =  17
TIME =                 8190, d_out =   1, mem =  17
TIME =                 8210, d_out =   1, mem =  17
TIME =                 8230, d_out =   1, mem =  17
TIME =                 8250, d_out =   1, mem =  17
TIME =                 8270, d_out =   1, mem =  17
TIME =                 8290, d_out =   1, mem =  17
TIME =                 8310, d_out =   1, mem =  17
TIME =                 8330, d_out =   1, mem =  17
TIME =                 8350, d_out =   1, mem =  17
TIME =                 8370, d_out =   1, mem =  17
TIME =                 8390, d_out =   1, mem =  17
TIME =                 8410, d_out =   1, mem =  17
TIME =                 8430, d_out =   1, mem =  17
TIME =                 8450, d_out =   1, mem =  17
TIME =                 8470, d_out =   1, mem =  17
TIME =                 8490, d_out =   1, mem =  17
TIME =                 8510, d_out =   1, mem =  17
TIME =                 8530, d_out =   1, mem =  17
TIME =                 8550, d_out =   1, mem =  17
TIME =                 8570, d_out =   1, mem =  17
TIME =                 8590, d_out =   1, mem =  17
TIME =                 8610, d_out =   1, mem =  17
TIME =                 8630, d_out =   1, mem =  17
TIME =                 8650, d_out =   1, mem =  17
TIME =                 8670, d_out =   1, mem =  17
TIME =                 8690, d_out =   1, mem =  17
TIME =                 8710, d_out =   1, mem =  17
TIME =                 8730, d_out =   1, mem =  17
TIME =                 8750, d_out =   1, mem =  17
TIME =                 8770, d_out =   1, mem =  17
TIME =                 8790, d_out =   1, mem =  17
TIME =                 8810, d_out =   1, mem =  17
TIME =                 8830, d_out =   1, mem =  17
TIME =                 8850, d_out =   1, mem =  17
TIME =                 8870, d_out =   1, mem =  17
TIME =                 8890, d_out =   1, mem =  17
TIME =                 8910, d_out =   1, mem =  17
TIME =                 8930, d_out =   1, mem =  17
TIME =                 8950, d_out =   1, mem =  17
TIME =                 8970, d_out =   1, mem =  17
TIME =                 8990, d_out =   1, mem =  17
TIME =                 9010, d_out =   1, mem =  17
TIME =                 9030, d_out =   1, mem =  17
TIME =                 9050, d_out =   1, mem =  17
TIME =                 9070, d_out =   1, mem =  17
TIME =                 9090, d_out =   1, mem =  17
TIME =                 9110, d_out =   1, mem =  17
TIME =                 9130, d_out =   1, mem =  17
TIME =                 9150, d_out =   1, mem =  17
TIME =                 9170, d_out =   1, mem =  17
TIME =                 9190, d_out =   1, mem =  17
TIME =                 9210, d_out =   1, mem =  17
TIME =                 9230, d_out =   1, mem =  17
TIME =                 9250, d_out =   1, mem =  17
TIME =                 9270, d_out =   1, mem =  17
TIME =                 9290, d_out =   1, mem =  17
TIME =                 9310, d_out =   1, mem =  17
TIME =                 9330, d_out =   1, mem =  17
TIME =                 9350, d_out =   1, mem =  17
TIME =                 9370, d_out =   1, mem =  17
TIME =                 9390, d_out =   1, mem =  17
TIME =                 9410, d_out =   1, mem =  17
TIME =                 9430, d_out =   1, mem =  17
TIME =                 9450, d_out =   1, mem =  17
TIME =                 9470, d_out =   1, mem =  17
TIME =                 9490, d_out =   1, mem =  17
TIME =                 9510, d_out =   1, mem =  17
TIME =                 9530, d_out =   1, mem =  17
TIME =                 9550, d_out =   1, mem =  17
TIME =                 9570, d_out =   1, mem =  17
TIME =                 9590, d_out =   1, mem =  17
TIME =                 9610, d_out =   1, mem =  17
TIME =                 9630, d_out =   1, mem =  17
TIME =                 9650, d_out =   1, mem =  17
TIME =                 9670, d_out =   1, mem =  17
TIME =                 9690, d_out =   1, mem =  17
TIME =                 9710, d_out =   1, mem =  17
TIME =                 9730, d_out =   1, mem =  17
TIME =                 9750, d_out =   1, mem =  17
TIME =                 9770, d_out =   1, mem =  17
TIME =                 9790, d_out =   1, mem =  17
TIME =                 9810, d_out =   1, mem =  17
TIME =                 9830, d_out =   1, mem =  17
TIME =                 9850, d_out =   1, mem =  17
TIME =                 9870, d_out =   1, mem =  17
TIME =                 9890, d_out =   1, mem =  17
TIME =                 9910, d_out =   1, mem =  17
TIME =                 9930, d_out =   1, mem =  17
TIME =                 9950, d_out =   1, mem =  17
TIME =                 9970, d_out =   1, mem =  17
TIME =                 9990, d_out =   1, mem =  17
TIME =                10010, d_out =   1, mem =  17
TIME =                10030, d_out =   1, mem =  17
TIME =                10050, d_out =   1, mem =  17
TIME =                10070, d_out =   1, mem =  17
TIME =                10090, d_out =   1, mem =  17
TIME =                10110, d_out =   1, mem =  17
TIME =                10130, d_out =   1, mem =  17
TIME =                10150, d_out =   1, mem =  17
TIME =                10170, d_out =   1, mem =  17
TIME =                10190, d_out =   1, mem =  17
TIME =                10210, d_out =   1, mem =  17
TIME =                10230, d_out =   1, mem =  17
TIME =                10250, d_out =   1, mem =  17
TIME =                10270, d_out =   1, mem =  17
TIME =                10290, d_out =   1, mem =  17
TIME =                10310, d_out =   1, mem =  17
TIME =                10330, d_out =   1, mem =  17
TIME =                10350, d_out =   1, mem =  17
TIME =                10370, d_out =   1, mem =  17
TIME =                10390, d_out =   1, mem =  17
TIME =                10410, d_out =   1, mem =  17
TIME =                10430, d_out =   1, mem =  17
TIME =                10450, d_out =   1, mem =  17
TIME =                10470, d_out =   1, mem =  17
TIME =                10490, d_out =   1, mem =  17
TIME =                10510, d_out =   1, mem =  17
TIME =                10530, d_out =   1, mem =  17
TIME =                10550, d_out =   1, mem =  17
TIME =                10570, d_out =   1, mem =  17
TIME =                10590, d_out =   1, mem =  17
TIME =                10610, d_out =   1, mem =  17
TIME =                10630, d_out =   1, mem =  17
TIME =                10650, d_out =   1, mem =  17
TIME =                10670, d_out =   1, mem =  17
TIME =                10690, d_out =   1, mem =  17
TIME =                10710, d_out =   1, mem =  17
TIME =                10730, d_out =   1, mem =  17
TIME =                10750, d_out =   1, mem =  17
TIME =                10770, d_out =   1, mem =  17
TIME =                10790, d_out =   1, mem =  17
TIME =                10810, d_out =   1, mem =  17
TIME =                10830, d_out =   1, mem =  17
TIME =                10850, d_out =   1, mem =  17
TIME =                10870, d_out =   1, mem =  17
TIME =                10890, d_out =   1, mem =  17
TIME =                10910, d_out =   1, mem =  17
TIME =                10930, d_out =   1, mem =  17
TIME =                10950, d_out =   1, mem =  17
TIME =                10970, d_out =   1, mem =  17
TIME =                10990, d_out =   1, mem =  17
TIME =                11010, d_out =   1, mem =  17
TIME =                11030, d_out =   1, mem =  17
TIME =                11050, d_out =   1, mem =  17
TIME =                11070, d_out =   1, mem =  17
TIME =                11090, d_out =   1, mem =  17
TIME =                11110, d_out =   1, mem =  17
TIME =                11130, d_out =   1, mem =  17
TIME =                11150, d_out =   1, mem =  17
TIME =                11170, d_out =   1, mem =  17
TIME =                11190, d_out =   1, mem =  17
TIME =                11210, d_out =   1, mem =  17
TIME =                11230, d_out =   1, mem =  17
TIME =                11250, d_out =   1, mem =  17
TIME =                11270, d_out =   1, mem =  17
TIME =                11290, d_out =   1, mem =  17
TIME =                11310, d_out =   1, mem =  17
TIME =                11330, d_out =   1, mem =  17
TIME =                11350, d_out =   1, mem =  17
TIME =                11370, d_out =   1, mem =  17
TIME =                11390, d_out =   1, mem =  17
TIME =                11410, d_out =   1, mem =  17
TIME =                11430, d_out =   1, mem =  17
TIME =                11450, d_out =   1, mem =  17
TIME =                11470, d_out =   1, mem =  17
TIME =                11490, d_out =   1, mem =  17
TIME =                11510, d_out =   1, mem =  17
